<mxfile host="www.draw.io" modified="2020-04-30T01:14:51.099Z" agent="5.0 (Windows NT 10.0; Win64; x64) AppleWebKit/537.36 (KHTML, like Gecko) Chrome/76.0.3809.100 Safari/537.36" etag="ymza006ro4_3wsV6A_ki" version="13.0.2" type="gitlab">
  <diagram name="Page-1" id="c7488fd3-1785-93aa-aadb-54a6760d102a">
    <mxGraphModel dx="1242" dy="686" grid="1" gridSize="10" guides="1" tooltips="1" connect="1" arrows="1" fold="1" page="1" pageScale="1" pageWidth="1100" pageHeight="850" background="#ffffff" math="0" shadow="0">
      <root>
        <mxCell id="0" />
        <mxCell id="1" parent="0" />
        <mxCell id="t7BI-cgEoqxYIkCvai7J-164" style="edgeStyle=orthogonalEdgeStyle;rounded=0;orthogonalLoop=1;jettySize=auto;html=1;fontColor=#000000;exitX=0.5;exitY=1;exitDx=0;exitDy=0;" edge="1" parent="1" source="t7BI-cgEoqxYIkCvai7J-91">
          <mxGeometry relative="1" as="geometry">
            <mxPoint x="617" y="439" as="targetPoint" />
            <Array as="points">
              <mxPoint x="683" y="364" />
              <mxPoint x="683" y="409" />
              <mxPoint x="617" y="409" />
            </Array>
          </mxGeometry>
        </mxCell>
        <mxCell id="2b4e8129b02d487f-1" value="快递PDA操作流程" style="swimlane;html=1;childLayout=stackLayout;horizontal=1;startSize=20;horizontalStack=0;rounded=0;shadow=0;labelBackgroundColor=none;strokeWidth=1;fontFamily=Verdana;fontSize=15;align=center;fillColor=#FFD966;fontStyle=1" parent="1" vertex="1">
          <mxGeometry x="190" y="40" width="1110" height="890" as="geometry">
            <mxRectangle x="180" y="70" width="60" height="20" as="alternateBounds" />
          </mxGeometry>
        </mxCell>
        <mxCell id="2b4e8129b02d487f-2" value="装车" style="swimlane;html=1;startSize=20;horizontal=0;fillColor=#000000;fontColor=#FFFFFF;fontSize=16;" parent="2b4e8129b02d487f-1" vertex="1">
          <mxGeometry y="20" width="1110" height="240" as="geometry" />
        </mxCell>
        <mxCell id="t7BI-cgEoqxYIkCvai7J-50" value="" style="edgeStyle=orthogonalEdgeStyle;rounded=0;orthogonalLoop=1;jettySize=auto;html=1;fontColor=#FFFFFF;" edge="1" parent="2b4e8129b02d487f-2" source="2b4e8129b02d487f-5" target="t7BI-cgEoqxYIkCvai7J-49">
          <mxGeometry relative="1" as="geometry" />
        </mxCell>
        <mxCell id="t7BI-cgEoqxYIkCvai7J-65" value="否" style="edgeStyle=orthogonalEdgeStyle;rounded=0;orthogonalLoop=1;jettySize=auto;html=1;fontColor=#000000;" edge="1" parent="2b4e8129b02d487f-2" source="t7BI-cgEoqxYIkCvai7J-60" target="t7BI-cgEoqxYIkCvai7J-55">
          <mxGeometry relative="1" as="geometry">
            <Array as="points">
              <mxPoint x="455" y="128" />
              <mxPoint x="455" y="128" />
            </Array>
          </mxGeometry>
        </mxCell>
        <mxCell id="t7BI-cgEoqxYIkCvai7J-51" value="" style="edgeStyle=orthogonalEdgeStyle;rounded=0;orthogonalLoop=1;jettySize=auto;html=1;fontColor=#FFFFFF;" edge="1" parent="2b4e8129b02d487f-2" source="t7BI-cgEoqxYIkCvai7J-49" target="2b4e8129b02d487f-6">
          <mxGeometry relative="1" as="geometry" />
        </mxCell>
        <mxCell id="t7BI-cgEoqxYIkCvai7J-142" value="干线" style="edgeLabel;html=1;align=center;verticalAlign=middle;resizable=0;points=[];fontColor=#000000;" vertex="1" connectable="0" parent="t7BI-cgEoqxYIkCvai7J-51">
          <mxGeometry x="-0.357" y="-2" relative="1" as="geometry">
            <mxPoint as="offset" />
          </mxGeometry>
        </mxCell>
        <mxCell id="t7BI-cgEoqxYIkCvai7J-61" value="" style="edgeStyle=orthogonalEdgeStyle;rounded=0;orthogonalLoop=1;jettySize=auto;html=1;fontColor=#000000;" edge="1" parent="2b4e8129b02d487f-2" source="2b4e8129b02d487f-6" target="t7BI-cgEoqxYIkCvai7J-60">
          <mxGeometry relative="1" as="geometry" />
        </mxCell>
        <mxCell id="t7BI-cgEoqxYIkCvai7J-75" value="" style="edgeStyle=orthogonalEdgeStyle;rounded=0;orthogonalLoop=1;jettySize=auto;html=1;fontColor=#000000;entryX=0.5;entryY=0;entryDx=0;entryDy=0;" edge="1" parent="2b4e8129b02d487f-2" source="t7BI-cgEoqxYIkCvai7J-64" target="t7BI-cgEoqxYIkCvai7J-55">
          <mxGeometry relative="1" as="geometry">
            <mxPoint x="445" y="38.5" as="targetPoint" />
          </mxGeometry>
        </mxCell>
        <mxCell id="t7BI-cgEoqxYIkCvai7J-64" value="扫描车标号" style="rounded=1;whiteSpace=wrap;html=1;shadow=0;labelBackgroundColor=none;strokeWidth=1;fontFamily=Verdana;fontSize=8;align=center;" vertex="1" parent="2b4e8129b02d487f-2">
          <mxGeometry x="346.5" y="19.99999999999997" width="70" height="37" as="geometry" />
        </mxCell>
        <mxCell id="t7BI-cgEoqxYIkCvai7J-146" value="错分错发，预付款校验等" style="shape=callout;whiteSpace=wrap;html=1;perimeter=calloutPerimeter;strokeColor=#000000;fillColor=#FFFFFF;fontColor=#000000;" vertex="1" parent="2b4e8129b02d487f-2">
          <mxGeometry x="575" y="29" width="120" height="80" as="geometry" />
        </mxCell>
        <mxCell id="t7BI-cgEoqxYIkCvai7J-147" value="根据当前部门、下一站查询发车计划" style="shape=callout;whiteSpace=wrap;html=1;perimeter=calloutPerimeter;strokeColor=#000000;fillColor=#FFFFFF;fontColor=#000000;" vertex="1" parent="2b4e8129b02d487f-2">
          <mxGeometry x="200" y="29" width="120" height="80" as="geometry" />
        </mxCell>
        <mxCell id="t7BI-cgEoqxYIkCvai7J-60" value="存在" style="rhombus;whiteSpace=wrap;html=1;strokeColor=#000000;fillColor=#FFFFFF;fontColor=#000000;" vertex="1" parent="2b4e8129b02d487f-2">
          <mxGeometry x="361" y="110" width="41" height="35" as="geometry" />
        </mxCell>
        <mxCell id="t7BI-cgEoqxYIkCvai7J-134" value="提交任务" style="rounded=1;whiteSpace=wrap;html=1;shadow=0;labelBackgroundColor=none;strokeWidth=1;fontFamily=Verdana;fontSize=8;align=center;" vertex="1" parent="2b4e8129b02d487f-2">
          <mxGeometry x="814" y="108.99999999999997" width="70" height="37" as="geometry" />
        </mxCell>
        <mxCell id="t7BI-cgEoqxYIkCvai7J-132" value="扫描上传" style="rounded=1;whiteSpace=wrap;html=1;shadow=0;labelBackgroundColor=none;strokeWidth=1;fontFamily=Verdana;fontSize=8;align=center;" vertex="1" parent="2b4e8129b02d487f-2">
          <mxGeometry x="705" y="108.99999999999997" width="70" height="37" as="geometry" />
        </mxCell>
        <mxCell id="2b4e8129b02d487f-5" value="开始" style="ellipse;whiteSpace=wrap;html=1;rounded=0;shadow=0;labelBackgroundColor=none;strokeWidth=1;fontFamily=Verdana;fontSize=8;align=center;" parent="2b4e8129b02d487f-2" vertex="1">
          <mxGeometry x="50" y="111.5" width="30" height="30" as="geometry" />
        </mxCell>
        <mxCell id="t7BI-cgEoqxYIkCvai7J-158" style="edgeStyle=orthogonalEdgeStyle;rounded=0;orthogonalLoop=1;jettySize=auto;html=1;fontColor=#000000;" edge="1" parent="2b4e8129b02d487f-2" source="t7BI-cgEoqxYIkCvai7J-55" target="t7BI-cgEoqxYIkCvai7J-155">
          <mxGeometry relative="1" as="geometry" />
        </mxCell>
        <mxCell id="t7BI-cgEoqxYIkCvai7J-55" value="创建发件任务" style="rounded=1;whiteSpace=wrap;html=1;shadow=0;labelBackgroundColor=none;strokeWidth=1;fontFamily=Verdana;fontSize=8;align=center;" vertex="1" parent="2b4e8129b02d487f-2">
          <mxGeometry x="481" y="108.99999999999997" width="70" height="37" as="geometry" />
        </mxCell>
        <mxCell id="t7BI-cgEoqxYIkCvai7J-135" value="" style="edgeStyle=orthogonalEdgeStyle;rounded=0;orthogonalLoop=1;jettySize=auto;html=1;fontColor=#000000;" edge="1" parent="2b4e8129b02d487f-2" source="t7BI-cgEoqxYIkCvai7J-132" target="t7BI-cgEoqxYIkCvai7J-134">
          <mxGeometry relative="1" as="geometry" />
        </mxCell>
        <mxCell id="2b4e8129b02d487f-6" value="查询发车计划" style="rounded=1;whiteSpace=wrap;html=1;shadow=0;labelBackgroundColor=none;strokeWidth=1;fontFamily=Verdana;fontSize=8;align=center;" parent="2b4e8129b02d487f-2" vertex="1">
          <mxGeometry x="210" y="108.99999999999997" width="70" height="37" as="geometry" />
        </mxCell>
        <mxCell id="t7BI-cgEoqxYIkCvai7J-73" value="是" style="edgeStyle=orthogonalEdgeStyle;rounded=0;orthogonalLoop=1;jettySize=auto;html=1;fontColor=#000000;" edge="1" parent="2b4e8129b02d487f-2" source="t7BI-cgEoqxYIkCvai7J-60" target="t7BI-cgEoqxYIkCvai7J-64">
          <mxGeometry relative="1" as="geometry">
            <mxPoint x="330" y="60" as="targetPoint" />
          </mxGeometry>
        </mxCell>
        <mxCell id="t7BI-cgEoqxYIkCvai7J-162" style="edgeStyle=orthogonalEdgeStyle;rounded=0;orthogonalLoop=1;jettySize=auto;html=1;entryX=0.5;entryY=0;entryDx=0;entryDy=0;fontColor=#000000;" edge="1" parent="2b4e8129b02d487f-2" source="t7BI-cgEoqxYIkCvai7J-49" target="t7BI-cgEoqxYIkCvai7J-54">
          <mxGeometry relative="1" as="geometry" />
        </mxCell>
        <mxCell id="t7BI-cgEoqxYIkCvai7J-49" value="" style="rhombus;whiteSpace=wrap;html=1;strokeColor=#000000;fillColor=#FFFFFF;fontColor=#000000;" vertex="1" parent="2b4e8129b02d487f-2">
          <mxGeometry x="119" y="109" width="41" height="35" as="geometry" />
        </mxCell>
        <mxCell id="t7BI-cgEoqxYIkCvai7J-152" value="扫描上传" style="rounded=1;whiteSpace=wrap;html=1;shadow=0;labelBackgroundColor=none;strokeWidth=1;fontFamily=Verdana;fontSize=8;align=center;" vertex="1" parent="2b4e8129b02d487f-2">
          <mxGeometry x="705" y="108.99999999999997" width="70" height="37" as="geometry" />
        </mxCell>
        <mxCell id="t7BI-cgEoqxYIkCvai7J-154" value="扫描上传" style="rounded=1;whiteSpace=wrap;html=1;shadow=0;labelBackgroundColor=none;strokeWidth=1;fontFamily=Verdana;fontSize=8;align=center;" vertex="1" parent="2b4e8129b02d487f-2">
          <mxGeometry x="705" y="108.99999999999997" width="70" height="37" as="geometry" />
        </mxCell>
        <mxCell id="t7BI-cgEoqxYIkCvai7J-159" style="edgeStyle=orthogonalEdgeStyle;rounded=0;orthogonalLoop=1;jettySize=auto;html=1;entryX=0;entryY=0.5;entryDx=0;entryDy=0;fontColor=#000000;" edge="1" parent="2b4e8129b02d487f-2" source="t7BI-cgEoqxYIkCvai7J-155" target="t7BI-cgEoqxYIkCvai7J-154">
          <mxGeometry relative="1" as="geometry" />
        </mxCell>
        <mxCell id="t7BI-cgEoqxYIkCvai7J-155" value="扫描校验" style="rounded=1;whiteSpace=wrap;html=1;shadow=0;labelBackgroundColor=none;strokeWidth=1;fontFamily=Verdana;fontSize=8;align=center;" vertex="1" parent="2b4e8129b02d487f-2">
          <mxGeometry x="595" y="108.99999999999997" width="70" height="37" as="geometry" />
        </mxCell>
        <mxCell id="t7BI-cgEoqxYIkCvai7J-54" value="创建发件（下一站）" style="rounded=1;whiteSpace=wrap;html=1;strokeColor=#000000;fillColor=#FFFFFF;fontColor=#000000;" vertex="1" parent="2b4e8129b02d487f-2">
          <mxGeometry x="104.5" y="182.5" width="70" height="37" as="geometry" />
        </mxCell>
        <mxCell id="t7BI-cgEoqxYIkCvai7J-77" value="" style="edgeStyle=orthogonalEdgeStyle;rounded=0;orthogonalLoop=1;jettySize=auto;html=1;fontColor=#000000;exitX=0.5;exitY=1;exitDx=0;exitDy=0;" edge="1" parent="2b4e8129b02d487f-1" source="t7BI-cgEoqxYIkCvai7J-134" target="t7BI-cgEoqxYIkCvai7J-76">
          <mxGeometry relative="1" as="geometry" />
        </mxCell>
        <mxCell id="t7BI-cgEoqxYIkCvai7J-119" style="edgeStyle=orthogonalEdgeStyle;rounded=0;orthogonalLoop=1;jettySize=auto;html=1;entryX=0.5;entryY=0;entryDx=0;entryDy=0;fontColor=#000000;" edge="1" parent="2b4e8129b02d487f-1" source="t7BI-cgEoqxYIkCvai7J-54" target="t7BI-cgEoqxYIkCvai7J-117">
          <mxGeometry relative="1" as="geometry" />
        </mxCell>
        <mxCell id="2b4e8129b02d487f-3" value="发车" style="swimlane;html=1;startSize=20;horizontal=0;fillColor=#000000;fontColor=#FFFFFF;fontSize=15;" parent="2b4e8129b02d487f-1" vertex="1">
          <mxGeometry y="260" width="1110" height="230" as="geometry" />
        </mxCell>
        <mxCell id="t7BI-cgEoqxYIkCvai7J-83" value="" style="edgeStyle=orthogonalEdgeStyle;rounded=0;orthogonalLoop=1;jettySize=auto;html=1;fontColor=#000000;entryX=0;entryY=0.5;entryDx=0;entryDy=0;exitX=1;exitY=0.5;exitDx=0;exitDy=0;" edge="1" parent="2b4e8129b02d487f-3" source="t7BI-cgEoqxYIkCvai7J-76" target="t7BI-cgEoqxYIkCvai7J-84">
          <mxGeometry relative="1" as="geometry">
            <mxPoint x="286" y="48.5" as="sourcePoint" />
            <mxPoint x="347" y="49" as="targetPoint" />
          </mxGeometry>
        </mxCell>
        <mxCell id="t7BI-cgEoqxYIkCvai7J-93" value="" style="edgeStyle=orthogonalEdgeStyle;rounded=0;orthogonalLoop=1;jettySize=auto;html=1;fontColor=#000000;entryX=0.5;entryY=0;entryDx=0;entryDy=0;exitX=0.5;exitY=1;exitDx=0;exitDy=0;" edge="1" parent="2b4e8129b02d487f-3" source="t7BI-cgEoqxYIkCvai7J-84" target="t7BI-cgEoqxYIkCvai7J-80">
          <mxGeometry relative="1" as="geometry">
            <mxPoint x="407" y="130" as="targetPoint" />
            <Array as="points">
              <mxPoint x="344" y="109" />
              <mxPoint x="427" y="109" />
            </Array>
          </mxGeometry>
        </mxCell>
        <mxCell id="t7BI-cgEoqxYIkCvai7J-76" value="&lt;span style=&quot;font-family: &amp;#34;helvetica&amp;#34; ; font-size: 12px&quot;&gt;查询发车计划&lt;/span&gt;" style="rounded=1;whiteSpace=wrap;html=1;shadow=0;labelBackgroundColor=none;strokeWidth=1;fontFamily=Verdana;fontSize=8;align=center;" vertex="1" parent="2b4e8129b02d487f-3">
          <mxGeometry x="207" y="26.5" width="70" height="37" as="geometry" />
        </mxCell>
        <mxCell id="t7BI-cgEoqxYIkCvai7J-91" value="扫描车标号" style="rounded=1;whiteSpace=wrap;html=1;strokeColor=#000000;fillColor=#FFFFFF;fontColor=#000000;verticalAlign=middle;" vertex="1" parent="2b4e8129b02d487f-3">
          <mxGeometry x="456" y="26.5" width="70" height="37" as="geometry" />
        </mxCell>
        <mxCell id="t7BI-cgEoqxYIkCvai7J-163" style="edgeStyle=orthogonalEdgeStyle;rounded=0;orthogonalLoop=1;jettySize=auto;html=1;entryX=0;entryY=0.5;entryDx=0;entryDy=0;fontColor=#000000;" edge="1" parent="2b4e8129b02d487f-3" source="t7BI-cgEoqxYIkCvai7J-84" target="t7BI-cgEoqxYIkCvai7J-91">
          <mxGeometry relative="1" as="geometry" />
        </mxCell>
        <mxCell id="t7BI-cgEoqxYIkCvai7J-84" value="存在" style="rhombus;whiteSpace=wrap;html=1;strokeColor=#000000;fillColor=#FFFFFF;fontColor=#000000;" vertex="1" parent="2b4e8129b02d487f-3">
          <mxGeometry x="324" y="27.5" width="41" height="35" as="geometry" />
        </mxCell>
        <mxCell id="t7BI-cgEoqxYIkCvai7J-80" value="&lt;span style=&quot;font-family: &amp;#34;helvetica&amp;#34; ; font-size: 12px&quot;&gt;创建发车任务&lt;/span&gt;" style="rounded=1;whiteSpace=wrap;html=1;shadow=0;labelBackgroundColor=none;strokeWidth=1;fontFamily=Verdana;fontSize=8;align=center;" vertex="1" parent="2b4e8129b02d487f-3">
          <mxGeometry x="387" y="140" width="80" height="37" as="geometry" />
        </mxCell>
        <mxCell id="t7BI-cgEoqxYIkCvai7J-148" value="&lt;span style=&quot;font-family: &amp;#34;helvetica&amp;#34; ; font-size: 12px&quot;&gt;创建发车任务&lt;/span&gt;" style="rounded=1;whiteSpace=wrap;html=1;shadow=0;labelBackgroundColor=none;strokeWidth=1;fontFamily=Verdana;fontSize=8;align=center;" vertex="1" parent="2b4e8129b02d487f-3">
          <mxGeometry x="387" y="140" width="80" height="37" as="geometry" />
        </mxCell>
        <mxCell id="t7BI-cgEoqxYIkCvai7J-151" value="&lt;span style=&quot;font-family: &amp;#34;helvetica&amp;#34; ; font-size: 12px&quot;&gt;创建发车任务&lt;/span&gt;" style="rounded=1;whiteSpace=wrap;html=1;shadow=0;labelBackgroundColor=none;strokeWidth=1;fontFamily=Verdana;fontSize=8;align=center;" vertex="1" parent="2b4e8129b02d487f-3">
          <mxGeometry x="387" y="140" width="80" height="37" as="geometry" />
        </mxCell>
        <mxCell id="t7BI-cgEoqxYIkCvai7J-169" value="" style="edgeStyle=orthogonalEdgeStyle;rounded=0;orthogonalLoop=1;jettySize=auto;html=1;fontSize=15;fontColor=#000000;" edge="1" parent="2b4e8129b02d487f-3" source="t7BI-cgEoqxYIkCvai7J-153" target="t7BI-cgEoqxYIkCvai7J-168">
          <mxGeometry relative="1" as="geometry" />
        </mxCell>
        <mxCell id="t7BI-cgEoqxYIkCvai7J-153" value="&lt;span style=&quot;font-family: &amp;#34;helvetica&amp;#34; ; font-size: 12px&quot;&gt;仓位上报&lt;/span&gt;" style="rounded=1;whiteSpace=wrap;html=1;shadow=0;labelBackgroundColor=none;strokeWidth=1;fontFamily=Verdana;fontSize=8;align=center;" vertex="1" parent="2b4e8129b02d487f-3">
          <mxGeometry x="387" y="140" width="80" height="37" as="geometry" />
        </mxCell>
        <mxCell id="t7BI-cgEoqxYIkCvai7J-171" value="" style="edgeStyle=orthogonalEdgeStyle;rounded=0;orthogonalLoop=1;jettySize=auto;html=1;fontSize=15;fontColor=#000000;" edge="1" parent="2b4e8129b02d487f-3" source="t7BI-cgEoqxYIkCvai7J-168" target="t7BI-cgEoqxYIkCvai7J-170">
          <mxGeometry relative="1" as="geometry" />
        </mxCell>
        <mxCell id="t7BI-cgEoqxYIkCvai7J-160" value="否" style="text;html=1;align=center;verticalAlign=middle;resizable=0;points=[];autosize=1;fontColor=#000000;" vertex="1" parent="2b4e8129b02d487f-3">
          <mxGeometry x="391" y="51" width="30" height="20" as="geometry" />
        </mxCell>
        <mxCell id="t7BI-cgEoqxYIkCvai7J-161" value="是" style="text;html=1;align=center;verticalAlign=middle;resizable=0;points=[];autosize=1;fontColor=#000000;" vertex="1" parent="2b4e8129b02d487f-3">
          <mxGeometry x="365" y="85" width="30" height="20" as="geometry" />
        </mxCell>
        <mxCell id="t7BI-cgEoqxYIkCvai7J-167" value="&lt;span style=&quot;font-family: &amp;#34;helvetica&amp;#34; ; font-size: 12px&quot;&gt;班车发车&lt;/span&gt;" style="rounded=1;whiteSpace=wrap;html=1;shadow=0;labelBackgroundColor=none;strokeWidth=1;fontFamily=Verdana;fontSize=8;align=center;" vertex="1" parent="2b4e8129b02d487f-3">
          <mxGeometry x="790" y="140" width="80" height="37" as="geometry" />
        </mxCell>
        <mxCell id="t7BI-cgEoqxYIkCvai7J-168" value="&lt;font face=&quot;helvetica&quot;&gt;下拉封车条码&lt;/font&gt;" style="rounded=1;whiteSpace=wrap;html=1;shadow=0;labelBackgroundColor=none;strokeWidth=1;fontFamily=Verdana;fontSize=8;align=center;" vertex="1" parent="2b4e8129b02d487f-3">
          <mxGeometry x="515" y="140" width="80" height="37" as="geometry" />
        </mxCell>
        <mxCell id="t7BI-cgEoqxYIkCvai7J-173" style="edgeStyle=orthogonalEdgeStyle;rounded=0;orthogonalLoop=1;jettySize=auto;html=1;entryX=0;entryY=0.5;entryDx=0;entryDy=0;fontSize=15;fontColor=#000000;" edge="1" parent="2b4e8129b02d487f-3" source="t7BI-cgEoqxYIkCvai7J-170" target="t7BI-cgEoqxYIkCvai7J-167">
          <mxGeometry relative="1" as="geometry" />
        </mxCell>
        <mxCell id="t7BI-cgEoqxYIkCvai7J-170" value="&lt;font face=&quot;helvetica&quot;&gt;条码上传&lt;/font&gt;" style="rounded=1;whiteSpace=wrap;html=1;shadow=0;labelBackgroundColor=none;strokeWidth=1;fontFamily=Verdana;fontSize=8;align=center;" vertex="1" parent="2b4e8129b02d487f-3">
          <mxGeometry x="650" y="140" width="80" height="37" as="geometry" />
        </mxCell>
        <mxCell id="2b4e8129b02d487f-4" value="到车" style="swimlane;html=1;startSize=20;horizontal=0;fillColor=#000000;fontColor=#FFFFFF;fontSize=15;" parent="2b4e8129b02d487f-1" vertex="1">
          <mxGeometry y="490" width="1110" height="210" as="geometry" />
        </mxCell>
        <mxCell id="t7BI-cgEoqxYIkCvai7J-109" style="edgeStyle=orthogonalEdgeStyle;rounded=0;orthogonalLoop=1;jettySize=auto;html=1;entryX=1;entryY=0.5;entryDx=0;entryDy=0;fontColor=#000000;" edge="1" parent="2b4e8129b02d487f-4" source="t7BI-cgEoqxYIkCvai7J-104" target="t7BI-cgEoqxYIkCvai7J-108">
          <mxGeometry relative="1" as="geometry" />
        </mxCell>
        <mxCell id="t7BI-cgEoqxYIkCvai7J-113" style="edgeStyle=orthogonalEdgeStyle;rounded=0;orthogonalLoop=1;jettySize=auto;html=1;entryX=1;entryY=0.5;entryDx=0;entryDy=0;fontColor=#000000;" edge="1" parent="2b4e8129b02d487f-4" source="t7BI-cgEoqxYIkCvai7J-108" target="t7BI-cgEoqxYIkCvai7J-112">
          <mxGeometry relative="1" as="geometry" />
        </mxCell>
        <mxCell id="t7BI-cgEoqxYIkCvai7J-116" style="edgeStyle=orthogonalEdgeStyle;rounded=0;orthogonalLoop=1;jettySize=auto;html=1;entryX=0.5;entryY=0;entryDx=0;entryDy=0;fontColor=#000000;" edge="1" parent="2b4e8129b02d487f-4" source="t7BI-cgEoqxYIkCvai7J-108" target="t7BI-cgEoqxYIkCvai7J-114">
          <mxGeometry relative="1" as="geometry" />
        </mxCell>
        <mxCell id="t7BI-cgEoqxYIkCvai7J-115" style="edgeStyle=orthogonalEdgeStyle;rounded=0;orthogonalLoop=1;jettySize=auto;html=1;entryX=0.5;entryY=0;entryDx=0;entryDy=0;fontColor=#000000;" edge="1" parent="2b4e8129b02d487f-4" source="t7BI-cgEoqxYIkCvai7J-112" target="t7BI-cgEoqxYIkCvai7J-114">
          <mxGeometry relative="1" as="geometry" />
        </mxCell>
        <mxCell id="t7BI-cgEoqxYIkCvai7J-177" value="否" style="text;html=1;align=center;verticalAlign=middle;resizable=0;points=[];autosize=1;fontSize=15;fontColor=#000000;" vertex="1" parent="2b4e8129b02d487f-4">
          <mxGeometry x="620" y="39" width="30" height="20" as="geometry" />
        </mxCell>
        <mxCell id="t7BI-cgEoqxYIkCvai7J-104" value="&lt;font face=&quot;helvetica&quot;&gt;&lt;span style=&quot;font-size: 12px&quot;&gt;查询发车计划&lt;/span&gt;&lt;/font&gt;" style="rounded=1;whiteSpace=wrap;html=1;shadow=0;labelBackgroundColor=none;strokeWidth=1;fontFamily=Verdana;fontSize=8;align=center;" vertex="1" parent="2b4e8129b02d487f-4">
          <mxGeometry x="795" y="39" width="70" height="37" as="geometry" />
        </mxCell>
        <mxCell id="t7BI-cgEoqxYIkCvai7J-112" value="扫描车标号" style="rounded=1;whiteSpace=wrap;html=1;strokeColor=#000000;fillColor=#FFFFFF;fontColor=#000000;" vertex="1" parent="2b4e8129b02d487f-4">
          <mxGeometry x="530" y="39" width="70" height="37" as="geometry" />
        </mxCell>
        <mxCell id="t7BI-cgEoqxYIkCvai7J-108" value="" style="rhombus;whiteSpace=wrap;html=1;strokeColor=#000000;fillColor=#FFFFFF;fontColor=#000000;" vertex="1" parent="2b4e8129b02d487f-4">
          <mxGeometry x="665" y="40" width="41" height="35" as="geometry" />
        </mxCell>
        <mxCell id="t7BI-cgEoqxYIkCvai7J-178" value="是" style="text;html=1;align=center;verticalAlign=middle;resizable=0;points=[];autosize=1;fontSize=15;fontColor=#000000;" vertex="1" parent="2b4e8129b02d487f-4">
          <mxGeometry x="690" y="92" width="30" height="20" as="geometry" />
        </mxCell>
        <mxCell id="t7BI-cgEoqxYIkCvai7J-180" value="" style="edgeStyle=orthogonalEdgeStyle;rounded=0;orthogonalLoop=1;jettySize=auto;html=1;fontSize=15;fontColor=#000000;" edge="1" parent="2b4e8129b02d487f-4" source="t7BI-cgEoqxYIkCvai7J-114" target="t7BI-cgEoqxYIkCvai7J-179">
          <mxGeometry relative="1" as="geometry" />
        </mxCell>
        <mxCell id="t7BI-cgEoqxYIkCvai7J-114" value="&lt;font face=&quot;helvetica&quot;&gt;&lt;span style=&quot;font-size: 12px&quot;&gt;创建到车任务&lt;/span&gt;&lt;/font&gt;" style="rounded=1;whiteSpace=wrap;html=1;shadow=0;labelBackgroundColor=none;strokeWidth=1;fontFamily=Verdana;fontSize=8;align=center;" vertex="1" parent="2b4e8129b02d487f-4">
          <mxGeometry x="590" y="141.13" width="75" height="37" as="geometry" />
        </mxCell>
        <mxCell id="t7BI-cgEoqxYIkCvai7J-182" value="" style="edgeStyle=orthogonalEdgeStyle;rounded=0;orthogonalLoop=1;jettySize=auto;html=1;fontSize=15;fontColor=#000000;" edge="1" parent="2b4e8129b02d487f-4" source="t7BI-cgEoqxYIkCvai7J-179" target="t7BI-cgEoqxYIkCvai7J-181">
          <mxGeometry relative="1" as="geometry" />
        </mxCell>
        <mxCell id="t7BI-cgEoqxYIkCvai7J-179" value="&lt;font face=&quot;helvetica&quot;&gt;&lt;span style=&quot;font-size: 12px&quot;&gt;扫描条码&lt;/span&gt;&lt;/font&gt;" style="rounded=1;whiteSpace=wrap;html=1;shadow=0;labelBackgroundColor=none;strokeWidth=1;fontFamily=Verdana;fontSize=8;align=center;" vertex="1" parent="2b4e8129b02d487f-4">
          <mxGeometry x="435" y="141.13" width="75" height="37" as="geometry" />
        </mxCell>
        <mxCell id="t7BI-cgEoqxYIkCvai7J-181" value="&lt;font face=&quot;helvetica&quot;&gt;&lt;span style=&quot;font-size: 12px&quot;&gt;班车到车&lt;/span&gt;&lt;/font&gt;" style="rounded=1;whiteSpace=wrap;html=1;shadow=0;labelBackgroundColor=none;strokeWidth=1;fontFamily=Verdana;fontSize=8;align=center;" vertex="1" parent="2b4e8129b02d487f-4">
          <mxGeometry x="280" y="141.13" width="75" height="37" as="geometry" />
        </mxCell>
        <mxCell id="t7BI-cgEoqxYIkCvai7J-21" value="卸车" style="swimlane;html=1;startSize=20;horizontal=0;fillColor=#000000;fontColor=#FFFFFF;fontSize=15;" vertex="1" parent="2b4e8129b02d487f-1">
          <mxGeometry y="700" width="1110" height="190" as="geometry" />
        </mxCell>
        <mxCell id="t7BI-cgEoqxYIkCvai7J-123" style="edgeStyle=orthogonalEdgeStyle;rounded=0;orthogonalLoop=1;jettySize=auto;html=1;entryX=0;entryY=0.5;entryDx=0;entryDy=0;fontColor=#000000;" edge="1" parent="t7BI-cgEoqxYIkCvai7J-21" source="t7BI-cgEoqxYIkCvai7J-117" target="t7BI-cgEoqxYIkCvai7J-122">
          <mxGeometry relative="1" as="geometry" />
        </mxCell>
        <mxCell id="t7BI-cgEoqxYIkCvai7J-140" style="edgeStyle=orthogonalEdgeStyle;rounded=0;orthogonalLoop=1;jettySize=auto;html=1;entryX=0;entryY=0.5;entryDx=0;entryDy=0;fontColor=#000000;" edge="1" parent="t7BI-cgEoqxYIkCvai7J-21" source="t7BI-cgEoqxYIkCvai7J-124" target="t7BI-cgEoqxYIkCvai7J-136">
          <mxGeometry relative="1" as="geometry" />
        </mxCell>
        <mxCell id="t7BI-cgEoqxYIkCvai7J-126" style="edgeStyle=orthogonalEdgeStyle;rounded=0;orthogonalLoop=1;jettySize=auto;html=1;entryX=0.5;entryY=0;entryDx=0;entryDy=0;fontColor=#000000;" edge="1" parent="t7BI-cgEoqxYIkCvai7J-21" source="t7BI-cgEoqxYIkCvai7J-122" target="t7BI-cgEoqxYIkCvai7J-125">
          <mxGeometry relative="1" as="geometry" />
        </mxCell>
        <mxCell id="t7BI-cgEoqxYIkCvai7J-127" style="edgeStyle=orthogonalEdgeStyle;rounded=0;orthogonalLoop=1;jettySize=auto;html=1;entryX=0;entryY=0.5;entryDx=0;entryDy=0;fontColor=#000000;" edge="1" parent="t7BI-cgEoqxYIkCvai7J-21" source="t7BI-cgEoqxYIkCvai7J-122" target="t7BI-cgEoqxYIkCvai7J-124">
          <mxGeometry relative="1" as="geometry" />
        </mxCell>
        <mxCell id="t7BI-cgEoqxYIkCvai7J-138" value="" style="edgeStyle=orthogonalEdgeStyle;rounded=0;orthogonalLoop=1;jettySize=auto;html=1;fontColor=#000000;" edge="1" parent="t7BI-cgEoqxYIkCvai7J-21" source="t7BI-cgEoqxYIkCvai7J-136" target="t7BI-cgEoqxYIkCvai7J-137">
          <mxGeometry relative="1" as="geometry" />
        </mxCell>
        <mxCell id="t7BI-cgEoqxYIkCvai7J-185" value="卸车" style="swimlane;html=1;startSize=20;horizontal=0;fillColor=#000000;fontColor=#FFFFFF;fontSize=15;" vertex="1" parent="t7BI-cgEoqxYIkCvai7J-21">
          <mxGeometry width="1110" height="190" as="geometry" />
        </mxCell>
        <mxCell id="t7BI-cgEoqxYIkCvai7J-186" style="edgeStyle=orthogonalEdgeStyle;rounded=0;orthogonalLoop=1;jettySize=auto;html=1;entryX=0;entryY=0.5;entryDx=0;entryDy=0;fontColor=#000000;" edge="1" parent="t7BI-cgEoqxYIkCvai7J-185" source="t7BI-cgEoqxYIkCvai7J-198" target="t7BI-cgEoqxYIkCvai7J-199">
          <mxGeometry relative="1" as="geometry" />
        </mxCell>
        <mxCell id="t7BI-cgEoqxYIkCvai7J-187" style="edgeStyle=orthogonalEdgeStyle;rounded=0;orthogonalLoop=1;jettySize=auto;html=1;entryX=0;entryY=0.5;entryDx=0;entryDy=0;fontColor=#000000;" edge="1" parent="t7BI-cgEoqxYIkCvai7J-185" source="t7BI-cgEoqxYIkCvai7J-191" target="t7BI-cgEoqxYIkCvai7J-193">
          <mxGeometry relative="1" as="geometry" />
        </mxCell>
        <mxCell id="t7BI-cgEoqxYIkCvai7J-188" style="edgeStyle=orthogonalEdgeStyle;rounded=0;orthogonalLoop=1;jettySize=auto;html=1;entryX=0.5;entryY=0;entryDx=0;entryDy=0;fontColor=#000000;" edge="1" parent="t7BI-cgEoqxYIkCvai7J-185" source="t7BI-cgEoqxYIkCvai7J-199" target="t7BI-cgEoqxYIkCvai7J-200">
          <mxGeometry relative="1" as="geometry" />
        </mxCell>
        <mxCell id="t7BI-cgEoqxYIkCvai7J-189" style="edgeStyle=orthogonalEdgeStyle;rounded=0;orthogonalLoop=1;jettySize=auto;html=1;entryX=0;entryY=0.5;entryDx=0;entryDy=0;fontColor=#000000;" edge="1" parent="t7BI-cgEoqxYIkCvai7J-185" source="t7BI-cgEoqxYIkCvai7J-199" target="t7BI-cgEoqxYIkCvai7J-191">
          <mxGeometry relative="1" as="geometry" />
        </mxCell>
        <mxCell id="t7BI-cgEoqxYIkCvai7J-190" value="" style="edgeStyle=orthogonalEdgeStyle;rounded=0;orthogonalLoop=1;jettySize=auto;html=1;fontColor=#000000;" edge="1" parent="t7BI-cgEoqxYIkCvai7J-185" source="t7BI-cgEoqxYIkCvai7J-193" target="t7BI-cgEoqxYIkCvai7J-194">
          <mxGeometry relative="1" as="geometry" />
        </mxCell>
        <mxCell id="t7BI-cgEoqxYIkCvai7J-191" value="&lt;font face=&quot;helvetica&quot;&gt;&lt;span style=&quot;font-size: 12px&quot;&gt;创建到件任务&lt;/span&gt;&lt;/font&gt;" style="rounded=1;whiteSpace=wrap;html=1;shadow=0;labelBackgroundColor=none;strokeWidth=1;fontFamily=Verdana;fontSize=8;align=center;" vertex="1" parent="t7BI-cgEoqxYIkCvai7J-185">
          <mxGeometry x="340" y="33" width="75" height="37" as="geometry" />
        </mxCell>
        <mxCell id="t7BI-cgEoqxYIkCvai7J-192" style="edgeStyle=orthogonalEdgeStyle;rounded=0;orthogonalLoop=1;jettySize=auto;html=1;entryX=0;entryY=0.5;entryDx=0;entryDy=0;fontColor=#000000;" edge="1" parent="t7BI-cgEoqxYIkCvai7J-185" source="t7BI-cgEoqxYIkCvai7J-194" target="t7BI-cgEoqxYIkCvai7J-195">
          <mxGeometry relative="1" as="geometry" />
        </mxCell>
        <mxCell id="t7BI-cgEoqxYIkCvai7J-193" value="&lt;font face=&quot;helvetica&quot;&gt;&lt;span style=&quot;font-size: 12px&quot;&gt;扫描上传&lt;/span&gt;&lt;/font&gt;" style="rounded=1;whiteSpace=wrap;html=1;shadow=0;labelBackgroundColor=none;strokeWidth=1;fontFamily=Verdana;fontSize=8;align=center;" vertex="1" parent="t7BI-cgEoqxYIkCvai7J-185">
          <mxGeometry x="490" y="33" width="75" height="37" as="geometry" />
        </mxCell>
        <mxCell id="t7BI-cgEoqxYIkCvai7J-194" value="&lt;font face=&quot;helvetica&quot;&gt;&lt;span style=&quot;font-size: 12px&quot;&gt;提交任务&lt;/span&gt;&lt;/font&gt;" style="rounded=1;whiteSpace=wrap;html=1;shadow=0;labelBackgroundColor=none;strokeWidth=1;fontFamily=Verdana;fontSize=8;align=center;" vertex="1" parent="t7BI-cgEoqxYIkCvai7J-185">
          <mxGeometry x="645" y="33" width="75" height="37" as="geometry" />
        </mxCell>
        <mxCell id="t7BI-cgEoqxYIkCvai7J-195" value="结束" style="ellipse;whiteSpace=wrap;html=1;aspect=fixed;strokeColor=#000000;fillColor=#FFFFFF;fontColor=#000000;" vertex="1" parent="t7BI-cgEoqxYIkCvai7J-185">
          <mxGeometry x="800" y="26.5" width="50" height="50" as="geometry" />
        </mxCell>
        <mxCell id="t7BI-cgEoqxYIkCvai7J-196" style="edgeStyle=orthogonalEdgeStyle;rounded=0;orthogonalLoop=1;jettySize=auto;html=1;entryX=0.5;entryY=1;entryDx=0;entryDy=0;fontColor=#000000;" edge="1" parent="t7BI-cgEoqxYIkCvai7J-185" source="t7BI-cgEoqxYIkCvai7J-200" target="t7BI-cgEoqxYIkCvai7J-193">
          <mxGeometry relative="1" as="geometry" />
        </mxCell>
        <mxCell id="t7BI-cgEoqxYIkCvai7J-197" value="&lt;font face=&quot;helvetica&quot;&gt;&lt;span style=&quot;font-size: 12px&quot;&gt;提交任务&lt;/span&gt;&lt;/font&gt;" style="rounded=1;whiteSpace=wrap;html=1;shadow=0;labelBackgroundColor=none;strokeWidth=1;fontFamily=Verdana;fontSize=8;align=center;" vertex="1" parent="t7BI-cgEoqxYIkCvai7J-185">
          <mxGeometry x="645" y="33" width="75" height="37" as="geometry" />
        </mxCell>
        <mxCell id="t7BI-cgEoqxYIkCvai7J-198" value="&lt;font face=&quot;helvetica&quot;&gt;&lt;span style=&quot;font-size: 12px&quot;&gt;查询发件任务&lt;/span&gt;&lt;/font&gt;" style="rounded=1;whiteSpace=wrap;html=1;shadow=0;labelBackgroundColor=none;strokeWidth=1;fontFamily=Verdana;fontSize=8;align=center;" vertex="1" parent="t7BI-cgEoqxYIkCvai7J-185">
          <mxGeometry x="104.5" y="33" width="70" height="37" as="geometry" />
        </mxCell>
        <mxCell id="t7BI-cgEoqxYIkCvai7J-199" value="" style="rhombus;whiteSpace=wrap;html=1;strokeColor=#000000;fillColor=#FFFFFF;fontColor=#000000;" vertex="1" parent="t7BI-cgEoqxYIkCvai7J-185">
          <mxGeometry x="244.5" y="34" width="41" height="35" as="geometry" />
        </mxCell>
        <mxCell id="t7BI-cgEoqxYIkCvai7J-200" value="&lt;font face=&quot;helvetica&quot;&gt;&lt;span style=&quot;font-size: 12px&quot;&gt;根据发件任务创建到件任务&lt;/span&gt;&lt;/font&gt;" style="rounded=1;whiteSpace=wrap;html=1;shadow=0;labelBackgroundColor=none;strokeWidth=1;fontFamily=Verdana;fontSize=8;align=center;" vertex="1" parent="t7BI-cgEoqxYIkCvai7J-185">
          <mxGeometry x="227.5" y="120" width="75" height="37" as="geometry" />
        </mxCell>
        <mxCell id="t7BI-cgEoqxYIkCvai7J-124" value="&lt;font face=&quot;helvetica&quot;&gt;&lt;span style=&quot;font-size: 12px&quot;&gt;创建到件任务&lt;/span&gt;&lt;/font&gt;" style="rounded=1;whiteSpace=wrap;html=1;shadow=0;labelBackgroundColor=none;strokeWidth=1;fontFamily=Verdana;fontSize=8;align=center;" vertex="1" parent="t7BI-cgEoqxYIkCvai7J-21">
          <mxGeometry x="340" y="33" width="75" height="37" as="geometry" />
        </mxCell>
        <mxCell id="t7BI-cgEoqxYIkCvai7J-139" style="edgeStyle=orthogonalEdgeStyle;rounded=0;orthogonalLoop=1;jettySize=auto;html=1;entryX=0;entryY=0.5;entryDx=0;entryDy=0;fontColor=#000000;" edge="1" parent="t7BI-cgEoqxYIkCvai7J-21" source="t7BI-cgEoqxYIkCvai7J-137" target="t7BI-cgEoqxYIkCvai7J-128">
          <mxGeometry relative="1" as="geometry" />
        </mxCell>
        <mxCell id="t7BI-cgEoqxYIkCvai7J-136" value="&lt;font face=&quot;helvetica&quot;&gt;&lt;span style=&quot;font-size: 12px&quot;&gt;扫描上传&lt;/span&gt;&lt;/font&gt;" style="rounded=1;whiteSpace=wrap;html=1;shadow=0;labelBackgroundColor=none;strokeWidth=1;fontFamily=Verdana;fontSize=8;align=center;" vertex="1" parent="t7BI-cgEoqxYIkCvai7J-21">
          <mxGeometry x="490" y="33" width="75" height="37" as="geometry" />
        </mxCell>
        <mxCell id="t7BI-cgEoqxYIkCvai7J-137" value="&lt;font face=&quot;helvetica&quot;&gt;&lt;span style=&quot;font-size: 12px&quot;&gt;提交任务&lt;/span&gt;&lt;/font&gt;" style="rounded=1;whiteSpace=wrap;html=1;shadow=0;labelBackgroundColor=none;strokeWidth=1;fontFamily=Verdana;fontSize=8;align=center;" vertex="1" parent="t7BI-cgEoqxYIkCvai7J-21">
          <mxGeometry x="645" y="33" width="75" height="37" as="geometry" />
        </mxCell>
        <mxCell id="t7BI-cgEoqxYIkCvai7J-128" value="结束" style="ellipse;whiteSpace=wrap;html=1;aspect=fixed;strokeColor=#000000;fillColor=#FFFFFF;fontColor=#000000;" vertex="1" parent="t7BI-cgEoqxYIkCvai7J-21">
          <mxGeometry x="800" y="26.5" width="50" height="50" as="geometry" />
        </mxCell>
        <mxCell id="t7BI-cgEoqxYIkCvai7J-145" style="edgeStyle=orthogonalEdgeStyle;rounded=0;orthogonalLoop=1;jettySize=auto;html=1;entryX=0.5;entryY=1;entryDx=0;entryDy=0;fontColor=#000000;" edge="1" parent="t7BI-cgEoqxYIkCvai7J-21" source="t7BI-cgEoqxYIkCvai7J-125" target="t7BI-cgEoqxYIkCvai7J-136">
          <mxGeometry relative="1" as="geometry" />
        </mxCell>
        <mxCell id="t7BI-cgEoqxYIkCvai7J-149" value="&lt;font face=&quot;helvetica&quot;&gt;&lt;span style=&quot;font-size: 12px&quot;&gt;提交任务&lt;/span&gt;&lt;/font&gt;" style="rounded=1;whiteSpace=wrap;html=1;shadow=0;labelBackgroundColor=none;strokeWidth=1;fontFamily=Verdana;fontSize=8;align=center;" vertex="1" parent="t7BI-cgEoqxYIkCvai7J-21">
          <mxGeometry x="645" y="33" width="75" height="37" as="geometry" />
        </mxCell>
        <mxCell id="t7BI-cgEoqxYIkCvai7J-117" value="&lt;font face=&quot;helvetica&quot;&gt;&lt;span style=&quot;font-size: 12px&quot;&gt;查询发件任务&lt;/span&gt;&lt;/font&gt;" style="rounded=1;whiteSpace=wrap;html=1;shadow=0;labelBackgroundColor=none;strokeWidth=1;fontFamily=Verdana;fontSize=8;align=center;" vertex="1" parent="t7BI-cgEoqxYIkCvai7J-21">
          <mxGeometry x="104.5" y="33" width="70" height="37" as="geometry" />
        </mxCell>
        <mxCell id="t7BI-cgEoqxYIkCvai7J-122" value="" style="rhombus;whiteSpace=wrap;html=1;strokeColor=#000000;fillColor=#FFFFFF;fontColor=#000000;" vertex="1" parent="t7BI-cgEoqxYIkCvai7J-21">
          <mxGeometry x="244.5" y="34" width="41" height="35" as="geometry" />
        </mxCell>
        <mxCell id="t7BI-cgEoqxYIkCvai7J-125" value="&lt;font face=&quot;helvetica&quot;&gt;&lt;span style=&quot;font-size: 12px&quot;&gt;根据发件任务创建到件任务&lt;/span&gt;&lt;/font&gt;" style="rounded=1;whiteSpace=wrap;html=1;shadow=0;labelBackgroundColor=none;strokeWidth=1;fontFamily=Verdana;fontSize=8;align=center;" vertex="1" parent="t7BI-cgEoqxYIkCvai7J-21">
          <mxGeometry x="227.5" y="120" width="75" height="37" as="geometry" />
        </mxCell>
        <mxCell id="t7BI-cgEoqxYIkCvai7J-174" style="edgeStyle=orthogonalEdgeStyle;rounded=0;orthogonalLoop=1;jettySize=auto;html=1;fontSize=15;fontColor=#000000;" edge="1" parent="2b4e8129b02d487f-1" source="t7BI-cgEoqxYIkCvai7J-167" target="t7BI-cgEoqxYIkCvai7J-104">
          <mxGeometry relative="1" as="geometry" />
        </mxCell>
        <mxCell id="t7BI-cgEoqxYIkCvai7J-184" style="edgeStyle=orthogonalEdgeStyle;rounded=0;orthogonalLoop=1;jettySize=auto;html=1;entryX=0.5;entryY=0;entryDx=0;entryDy=0;fontSize=15;fontColor=#000000;" edge="1" parent="2b4e8129b02d487f-1" source="t7BI-cgEoqxYIkCvai7J-181" target="t7BI-cgEoqxYIkCvai7J-117">
          <mxGeometry relative="1" as="geometry" />
        </mxCell>
      </root>
    </mxGraphModel>
  </diagram>
</mxfile>
